<?xml version="1.0" encoding="UTF-8" standalone="no"?>
<svg
   xmlns:dc="http://purl.org/dc/elements/1.1/"
   xmlns:cc="http://creativecommons.org/ns#"
   xmlns:rdf="http://www.w3.org/1999/02/22-rdf-syntax-ns#"
   xmlns:svg="http://www.w3.org/2000/svg"
   xmlns="http://www.w3.org/2000/svg"
   xmlns:sodipodi="http://sodipodi.sourceforge.net/DTD/sodipodi-0.dtd"
   xmlns:inkscape="http://www.inkscape.org/namespaces/inkscape"
   id="Layer_1"
   height="512"
   viewBox="0 0 512 512"
   width="512"
   data-name="Layer 1"
   version="1.1"
   sodipodi:docname="new_image.svg"
   inkscape:version="1.0.1 (3bc2e813f5, 2020-09-07)">
  <metadata
     id="metadata1539">
    <rdf:RDF>
      <cc:Work
         rdf:about="">
        <dc:format>image/svg+xml</dc:format>
        <dc:type
           rdf:resource="http://purl.org/dc/dcmitype/StillImage" />
      </cc:Work>
    </rdf:RDF>
  </metadata>
  <defs
     id="defs1537" />
  <sodipodi:namedview
     pagecolor="#ffffff"
     bordercolor="#666666"
     borderopacity="1"
     objecttolerance="10"
     gridtolerance="10"
     guidetolerance="10"
     inkscape:pageopacity="0"
     inkscape:pageshadow="2"
     inkscape:window-width="1920"
     inkscape:window-height="1057"
     id="namedview1535"
     showgrid="false"
     inkscape:zoom="1.7382812"
     inkscape:cx="256"
     inkscape:cy="256"
     inkscape:window-x="-8"
     inkscape:window-y="-8"
     inkscape:window-maximized="1"
     inkscape:current-layer="Layer_1" />
  <path
     d="m501 153.92v255.2a40.832 40.832 0 0 1 -40.83 40.84h-408.34a40.832 40.832 0 0 1 -40.83-40.84v-255.2a40.838 40.838 0 0 1 40.83-40.84h81.67a51.042 51.042 0 0 1 51.04-51.04h142.92a51.038 51.038 0 0 1 51.04 51.04h81.67a40.838 40.838 0 0 1 40.83 40.84z"
     fill="#e97187"
     id="path1502" />
  <path
     d="m397.08 156.06h61.25v30.62h-61.25z"
     fill="#55d8d8"
     id="path1504" />
  <path
     d="m68.78 156.51a15.315 15.315 0 1 1 -15.31 15.32 15.319 15.319 0 0 1 15.31-15.32z"
     fill="#6d7486"
     id="path1506" />
  <path
     d="m256 159.02a127.605 127.605 0 1 1 -127.6 127.6 127.6 127.6 0 0 1 127.6-127.6z"
     fill="#db5d69"
     id="path1508" />
  <path
     d="m256 215.17a71.455 71.455 0 1 1 -71.46 71.45 71.453 71.453 0 0 1 71.46-71.45z"
     fill="#5fa8ed"
     id="path1510" />
  <path
     d="m179.45 76.99a50.843 50.843 0 0 1 36.09-14.95h-31a51.042 51.042 0 0 0 -51.04 51.04h31a50.843 50.843 0 0 1 14.95-36.09z"
     fill="#c65870"
     id="path1512" />
  <path
     d="m42 409.12v-255.2a40.838 40.838 0 0 1 40.83-40.84h-31a40.838 40.838 0 0 0 -40.83 40.84v255.2a40.832 40.832 0 0 0 40.83 40.84h31a40.832 40.832 0 0 1 -40.83-40.84z"
     fill="#c65870"
     id="path1514" />
  <path
     d="m215.54 286.62a71.462 71.462 0 0 1 55.96-69.745 71.455 71.455 0 1 0 0 139.5 71.466 71.466 0 0 1 -55.96-69.755z"
     fill="#8acaff"
     id="path1516" />
  <g
     fill="#284268"
     id="g1532">
    <path
       d="m333.458 286.625a77.458 77.458 0 1 0 -77.458 77.458 77.545 77.545 0 0 0 77.458-77.458zm-142.916 0a65.458 65.458 0 1 1 65.458 65.458 65.532 65.532 0 0 1 -65.458-65.458z"
       id="path1518" />
    <path
       d="m259.719 153.072a133.235 133.235 0 0 0 -100.786 41.853 5.995 5.995 0 1 0 8.72 8.228 121.549 121.549 0 0 1 209.858 88.277c-2.444 63.113-53.592 114.261-116.7 116.706a121.577 121.577 0 0 1 -114.763-173.41 6.014 6.014 0 0 0 -2.286-7.745h-.008a6 6 0 0 0 -8.527 2.562 132.9 132.9 0 0 0 -12.766 61.186c2.131 70.741 59.85 127.947 130.606 129.473 76.017 1.64 138.194-60.566 136.508-136.591-1.575-70.875-58.995-128.603-129.856-130.539z"
       id="path1520" />
    <path
       d="m460.167 107.083h-75.98a57.122 57.122 0 0 0 -56.729-51.041h-142.916a57.122 57.122 0 0 0 -56.729 51.041h-75.98a46.887 46.887 0 0 0 -46.833 46.834v255.208a46.886 46.886 0 0 0 46.833 46.833h408.334a46.886 46.886 0 0 0 46.833-46.833v-255.208a46.887 46.887 0 0 0 -46.833-46.834zm34.833 302.042a34.872 34.872 0 0 1 -34.833 34.833h-408.334a34.872 34.872 0 0 1 -34.833-34.833v-255.208a34.873 34.873 0 0 1 34.833-34.834h81.667a6 6 0 0 0 6-6 45.092 45.092 0 0 1 45.042-45.041h142.916a45.092 45.092 0 0 1 45.042 45.041 6 6 0 0 0 6 6h81.667a34.873 34.873 0 0 1 34.833 34.834z"
       id="path1522" />
    <path
       d="m458.335 150.057h-61.25a6 6 0 0 0 -6 6v30.625a6 6 0 0 0 6 6h61.25a6 6 0 0 0 6-6v-30.625a6 6 0 0 0 -6-6zm-6 30.625h-49.25v-18.625h49.25z"
       id="path1524" />
    <path
       d="m68.777 150.515a21.313 21.313 0 1 0 21.313 21.313 21.336 21.336 0 0 0 -21.313-21.313zm0 30.625a9.313 9.313 0 1 1 9.313-9.312 9.323 9.323 0 0 1 -9.313 9.312z"
       id="path1526" />
    <path
       d="m46.112 277.323a6 6 0 0 0 -6 6v12.264a6 6 0 0 0 12 0v-12.264a6 6 0 0 0 -6-6z"
       id="path1528" />
    <path
       d="m46.112 310.187a6 6 0 0 0 -6 6v80.913a6 6 0 0 0 12 0v-80.91a6 6 0 0 0 -6-6.003z"
       id="path1530" />
  </g>
  <path
     style="fill:#000000;stroke:#000000;stroke-width:3.26144;stroke-linecap:round;stroke-linejoin:round"
     d="M 44.008989,455.00292 C 26.297599,451.98296 11.4982,438.26782 6.7550856,420.47839 L 5.4651685,415.64045 V 281.02472 146.40899 l 1.6202722,-5.17753 c 4.1138953,-13.14582 12.3434973,-22.91459 24.2673683,-28.80604 10.063043,-4.97203 8.641124,-4.84789 55.527424,-4.84789 h 41.248997 l 0.36929,-3.14209 c 0.76784,-6.53311 4.28765,-15.564377 8.86476,-22.745552 2.61372,-4.100741 9.81215,-11.516212 14.30865,-14.740072 4.67738,-3.353542 13.12694,-7.294781 19.1865,-8.94941 l 4.88988,-1.335237 H 256 336.25169 l 4.88988,1.335237 c 6.03937,1.649117 14.49175,5.586933 19.1865,8.938658 4.32362,3.08677 11.7895,10.811444 14.39906,14.898197 4.47767,7.012333 8.01253,16.116302 8.77435,22.598179 l 0.36929,3.14209 41.1972,0.008 c 34.61004,0.007 41.78323,0.14665 44.8623,0.87248 19.53169,4.60422 33.78436,20.25667 36.36797,39.93977 0.36582,2.78694 0.50998,51.45814 0.40305,136.07812 l -0.16646,131.73933 -1.26397,4.43153 c -4.56366,16.00045 -15.5429,27.4908 -31.43085,32.89406 l -5.27372,1.79351 -210.84045,0.0793 C 141.7636,455.45771 45.591011,455.27267 44.008989,455.00292 Z M 471.22599,442.53423 c 5.02154,-1.70667 11.66255,-6.09947 15.07534,-9.97184 3.47378,-3.94158 7.06325,-11.13843 8.15298,-16.34666 1.26446,-6.04335 1.26936,-263.7653 0.005,-269.73247 -2.6291,-12.40935 -13.08244,-23.31014 -25.4009,-26.48819 -3.07231,-0.79263 -9.16821,-0.91234 -46.59775,-0.91513 -26.9352,-0.002 -43.83868,-0.21867 -45.13409,-0.57851 -3.33475,-0.92633 -4.0472,-2.18031 -4.6426,-8.17147 -0.70527,-7.09617 -1.82574,-11.300897 -4.48936,-16.846814 C 362.5851,81.803262 352.85828,73.538483 339.99101,69.518689 L 335.6764,68.170787 H 256 176.3236 l -4.28983,1.347098 c -12.60848,3.959331 -22.31856,12.100637 -27.89709,23.38998 -2.97803,6.026663 -4.08635,10.032115 -4.82077,17.422095 -0.59541,5.99116 -1.30786,7.24514 -4.6426,8.17147 -1.29453,0.35959 -18.24853,0.57906 -45.21713,0.58533 -36.000141,0.008 -43.670103,0.14931 -46.310113,0.85095 -12.635298,3.3581 -22.960826,14.0627 -25.605505,26.54555 -1.270254,5.99558 -1.258705,263.71677 0.01209,269.71597 2.820466,13.31495 12.994662,23.84875 26.12059,27.04382 2.681168,0.65264 37.970166,0.76571 213.477318,0.68403 l 210.26517,-0.0979 z"
     id="path1541" />
  <path
     style="fill:#000000;stroke:#000000;stroke-width:3.26144;stroke-linecap:round;stroke-linejoin:round"
     d="m 245.64494,419.6139 c -15.10314,-1.77978 -26.17033,-4.32669 -36.97519,-8.50915 -45.74645,-17.70801 -77.72566,-57.97009 -84.78704,-106.74757 -1.1646,-8.04456 -1.31187,-26.78688 -0.26698,-33.97516 2.43786,-16.77115 8.94513,-37.54126 13.20223,-42.13932 1.97382,-2.1319 5.06474,-2.16993 7.53341,-0.0927 2.42905,2.04392 2.32891,4.3977 -0.46284,10.8792 -19.14897,44.45742 -9.41876,97.19934 24.34256,131.94712 10.7639,11.0784 20.42953,18.17545 33.73607,24.77093 18.38222,9.11127 37.87712,13.29327 58.34745,12.51654 18.12747,-0.68783 32.7621,-4.32841 48.89887,-12.16432 36.14346,-17.55101 61.17847,-51.6807 67.40281,-91.88878 1.38302,-8.93404 1.3698,-26.57504 -0.0264,-35.26688 -7.23111,-45.01564 -36.33163,-80.95339 -78.22834,-96.60824 -13.42079,-5.01472 -26.94971,-7.36775 -42.36154,-7.36775 -32.53373,0 -61.11201,11.65544 -85.69014,34.94809 -5.47455,5.18822 -6.62207,5.66789 -9.72306,4.0643 -2.74942,-1.42178 -3.667,-4.77322 -2.12385,-7.75734 0.85663,-1.65654 8.82252,-9.18202 14.98424,-14.1558 9.49796,-7.66681 24.16016,-15.88825 36.2427,-20.32213 16.28753,-5.97697 29.02115,-8.23754 46.31011,-8.22132 21.31426,0.02 39.37419,4.21482 58.39101,13.56266 13.48964,6.63091 23.74038,13.85789 34.34784,24.21591 49.28848,48.12946 54.18889,123.91192 11.52825,178.27885 -1.75387,2.23514 -6.58045,7.42929 -10.72573,11.54255 -11.56903,11.47965 -21.70538,18.63834 -36.30092,25.63715 -12.70972,6.09453 -23.94321,9.579 -37.99259,11.78478 -5.44946,0.85558 -25.32244,1.57279 -29.60292,1.06837 z"
     id="path1543" />
  <path
     style="fill:#000000;stroke:#000000;stroke-width:3.26144;stroke-linecap:round;stroke-linejoin:round"
     d="m 61.493189,191.39889 c -5.854159,-2.47009 -9.420319,-5.83865 -11.888407,-11.22966 -4.056672,-8.86094 -0.739551,-20.22883 7.494404,-25.68359 4.473297,-2.96343 9.711722,-4.17941 14.483566,-3.36202 2.077456,0.35585 5.007272,1.2417 6.510703,1.96855 3.724026,1.80042 7.950949,6.17189 9.816271,10.15196 1.319444,2.81532 1.546454,4.05972 1.546454,8.47722 0,4.4043 -0.228567,5.6651 -1.530482,8.44233 -2.064725,4.40445 -5.757828,8.26638 -9.954068,10.40913 -2.898149,1.4799 -4.281838,1.80756 -8.362641,1.98026 -4.145994,0.17547 -5.380643,-1.2e-4 -8.1158,-1.15418 z M 73.641805,179.9191 c 3.317457,-2.25784 4.308757,-4.12048 4.308757,-8.09612 0,-4.22861 -1.421236,-6.67363 -4.915417,-8.45623 -2.909878,-1.48451 -5.463354,-1.43806 -8.62324,0.15685 -3.563702,1.79872 -5.279183,4.87306 -4.98893,8.94071 0.373603,5.23573 4.117516,8.74917 9.323092,8.74917 2.157753,0 3.525049,-0.3615 4.895738,-1.29438 z"
     id="path1545" />
  <path
     style="fill:#000000;stroke:#000000;stroke-width:3.26144;stroke-linecap:round;stroke-linejoin:round"
     d="m 43.275548,300.31869 c -2.603346,-1.62108 -3.005885,-3.09663 -3.005885,-11.01842 0,-9.3015 1.130179,-11.4396 6.046882,-11.4396 1.549099,0 2.534062,0.43851 3.777146,1.68159 l 1.68159,1.68159 v 8.08911 c 0,8.02003 -0.01351,8.10394 -1.582023,9.82546 -2.085371,2.2888 -4.481078,2.69754 -6.91771,1.18027 z"
     id="path1547" />
  <path
     style="fill:#000000;stroke:#000000;stroke-width:3.26144;stroke-linecap:round;stroke-linejoin:round"
     d="m 43.3878,402.03819 c -0.658058,-0.31931 -1.628844,-1.31252 -2.157303,-2.20713 -0.873688,-1.47903 -0.960834,-5.39174 -0.960834,-43.13966 0,-29.44169 0.186862,-41.8785 0.642612,-42.76967 1.857595,-3.63234 6.358789,-4.41108 9.181416,-1.58845 l 1.68159,1.68159 v 42.06832 c 0,45.11467 0.03937,44.47768 -2.844539,46.02111 -1.372177,0.73436 -3.956806,0.70354 -5.542942,-0.0661 z"
     id="path1549" />
  <path
     style="fill:#000000;stroke:#000000;stroke-width:3.26144;stroke-linecap:round;stroke-linejoin:round"
     d="m 242.82419,362.6503 c -10.51138,-1.76151 -23.00006,-7.10237 -32.35098,-13.83508 -2.4978,-1.79844 -6.94144,-5.74927 -9.87476,-8.77963 -11.32431,-11.69898 -18.18671,-25.50002 -20.90053,-42.03324 -1.0962,-6.67831 -0.791,-20.01293 0.60583,-26.46977 5.23007,-24.17585 20.21126,-43.46778 42.01906,-54.10975 21.82578,-10.65073 45.55648,-10.63766 67.42998,0.0371 21.82469,10.65099 36.67157,29.81668 41.99116,54.20597 1.46475,6.71562 1.46819,22.9397 0.006,29.78124 -3.16876,14.82966 -9.75888,27.45123 -19.90514,38.12284 -11.56511,12.16394 -27.18247,20.52324 -43.18893,23.1172 -6.7129,1.08787 -19.22674,1.06998 -25.832,-0.0369 z m 26.37447,-11.72227 c 12.5294,-2.55333 22.75239,-7.91563 31.9802,-16.77469 8.25669,-7.92675 13.55622,-16.11332 16.89112,-26.09294 12.01607,-35.95777 -7.69626,-74.04211 -43.72857,-84.48387 -42.04364,-12.18377 -83.92343,19.2115 -83.92343,62.91336 0,17.41508 6.16563,32.88019 18.06752,45.31835 9.70833,10.14578 20.57822,16.21407 34.28304,19.13907 6.99424,1.49277 19.05353,1.48398 26.43012,-0.0193 z"
     id="path1551" />
  <path
     style="fill:#000000;stroke:#000000;stroke-width:3.26144;stroke-linecap:round;stroke-linejoin:round"
     d="m 393.6655,191.12429 c -2.25047,-1.76848 -2.47449,-3.58315 -2.47449,-20.04424 0,-17.66552 0.17798,-18.61786 3.75906,-20.11413 2.94502,-1.23051 62.65116,-1.20811 65.60147,0.0246 3.45991,1.44565 3.70015,2.76929 3.70015,20.38725 0,8.53249 -0.24302,16.1528 -0.54004,16.93402 -0.29703,0.78123 -1.12247,1.96302 -1.83432,2.62622 -1.28304,1.19533 -1.57939,1.20569 -34.12064,1.19301 -30.21903,-0.0118 -32.92682,-0.0917 -34.09119,-1.00674 z m 59.08057,-19.69058 v -9.77978 h -25.02472 -25.02472 v 9.77978 9.77977 h 25.02472 25.02472 z"
     id="path1553" />
</svg>
