<?xml version="1.0" encoding="UTF-8" standalone="no"?>
<svg
   xmlns:dc="http://purl.org/dc/elements/1.1/"
   xmlns:cc="http://creativecommons.org/ns#"
   xmlns:rdf="http://www.w3.org/1999/02/22-rdf-syntax-ns#"
   xmlns:svg="http://www.w3.org/2000/svg"
   xmlns="http://www.w3.org/2000/svg"
   xmlns:xlink="http://www.w3.org/1999/xlink"
   xmlns:sodipodi="http://sodipodi.sourceforge.net/DTD/sodipodi-0.dtd"
   xmlns:inkscape="http://www.inkscape.org/namespaces/inkscape"
   width="210mm"
   height="297mm"
   viewBox="0 0 210 297"
   version="1.1"
   id="svg8"
   inkscape:version="1.0.1 (3bc2e813f5, 2020-09-07)"
   sodipodi:docname="new_scenario2.svg">
  <defs
     id="defs2">
    <linearGradient
       inkscape:collect="always"
       id="linearGradient1137">
      <stop
         style="stop-color:#000000;stop-opacity:1;"
         offset="0"
         id="stop1133" />
      <stop
         style="stop-color:#000000;stop-opacity:0;"
         offset="1"
         id="stop1135" />
    </linearGradient>
    <radialGradient
       inkscape:collect="always"
       xlink:href="#linearGradient1137"
       id="radialGradient1139"
       cx="248"
       cy="247.99977"
       fx="248"
       fy="247.99977"
       r="248"
       gradientTransform="matrix(1,0,0,0.72608967,0,67.9297)"
       gradientUnits="userSpaceOnUse" />
  </defs>
  <sodipodi:namedview
     id="base"
     pagecolor="#ffffff"
     bordercolor="#666666"
     borderopacity="1.0"
     inkscape:pageopacity="0.0"
     inkscape:pageshadow="2"
     inkscape:zoom="0.35"
     inkscape:cx="-151.05577"
     inkscape:cy="569.41702"
     inkscape:document-units="mm"
     inkscape:current-layer="layer1"
     inkscape:document-rotation="0"
     showgrid="false"
     inkscape:window-width="1540"
     inkscape:window-height="1041"
     inkscape:window-x="235"
     inkscape:window-y="41"
     inkscape:window-maximized="0" />
  <metadata
     id="metadata5">
    <rdf:RDF>
      <cc:Work
         rdf:about="">
        <dc:format>image/svg+xml</dc:format>
        <dc:type
           rdf:resource="http://purl.org/dc/dcmitype/StillImage" />
        <dc:title></dc:title>
      </cc:Work>
    </rdf:RDF>
  </metadata>
  <g
     inkscape:label="Calque 1"
     inkscape:groupmode="layer"
     id="layer1">
    <g
       id="g308"
       transform="matrix(0.37767878,0,0,0.35765197,12.546971,-16.453701)"
       style="stroke:#000000;stroke-width:5.66929;stroke-miterlimit:4;stroke-dasharray:none;stroke-opacity:1">
      <g
         id="g172"
         style="stroke:#000000;stroke-width:5.66929;stroke-miterlimit:4;stroke-dasharray:none;stroke-opacity:1">
	<g
   id="g12"
   style="stroke:#000000;stroke-width:5.66929;stroke-miterlimit:4;stroke-dasharray:none;stroke-opacity:1">
		<path
   style="fill:#ff4f19;stroke:#000000;stroke-width:5.66929;stroke-miterlimit:4;stroke-dasharray:none;stroke-opacity:1"
   d="M 472,116.07 H 24 c -13.234,0 -24,10.766 -24,24 v 264 c 0,13.234 10.766,24 24,24 h 448 c 13.234,0 24,-10.766 24,-24 v -264 c 0,-13.234 -10.766,-24 -24,-24 z"
   id="path10" />

	</g>

	<g
   id="g16"
   style="stroke:#000000;stroke-width:5.66929;stroke-miterlimit:4;stroke-dasharray:none;stroke-opacity:1">
		<rect
   x="224"
   y="388.07001"
   style="fill:#e3001e;stroke:#000000;stroke-width:5.66929;stroke-miterlimit:4;stroke-dasharray:none;stroke-opacity:1"
   width="48"
   height="40"
   id="rect14" />

	</g>

	<g
   id="g20"
   style="stroke:#000000;stroke-width:5.66929;stroke-miterlimit:4;stroke-dasharray:none;stroke-opacity:1">
		<path
   style="fill:#e6be8a;stroke:#000000;stroke-width:5.66929;stroke-miterlimit:4;stroke-dasharray:none;stroke-opacity:1"
   d="m 464.219,364.07 v 24 c 0,4.418 -3.582,8 -8,8 h -416 c -4.418,0 -8,-3.582 -8,-8 v -24 l 47.781,-24 192,8 160,-8 z"
   id="path18" />

	</g>

	<g
   id="g24"
   style="stroke:#000000;stroke-width:5.66929;stroke-miterlimit:4;stroke-dasharray:none;stroke-opacity:1">
		<path
   style="fill:#ffebb7;stroke:#000000;stroke-width:5.66929;stroke-miterlimit:4;stroke-dasharray:none;stroke-opacity:1"
   d="m 43.443,375.116 c 65.739,-27.139 140.084,-25.487 204.776,4.954 v -288 C 181.394,60.625 104.27,59.9 36.97,89.894 c -2.896,1.291 -4.751,4.222 -4.751,7.393 v 270.515 c 0,5.779 5.883,9.519 11.224,7.314 z"
   id="path22" />

	</g>

	<g
   id="g28"
   style="stroke:#000000;stroke-width:5.66929;stroke-miterlimit:4;stroke-dasharray:none;stroke-opacity:1">
		<path
   style="fill:#ffd788;stroke:#000000;stroke-width:5.66929;stroke-miterlimit:4;stroke-dasharray:none;stroke-opacity:1"
   d="m 248.219,380.07 c 64.692,-30.442 139.037,-32.093 204.776,-4.954 5.341,2.205 11.224,-1.535 11.224,-7.314 V 97.287 c 0,-3.171 -1.855,-6.102 -4.751,-7.393 C 392.168,59.9 315.043,60.625 248.219,92.07 Z"
   id="path26" />

	</g>

	<g
   id="g34"
   style="stroke:#000000;stroke-width:5.66929;stroke-miterlimit:4;stroke-dasharray:none;stroke-opacity:1">
		<g
   id="g32"
   style="stroke:#000000;stroke-width:5.66929;stroke-miterlimit:4;stroke-dasharray:none;stroke-opacity:1">
			<path
   style="fill:#868491;stroke:#000000;stroke-width:5.66929;stroke-miterlimit:4;stroke-dasharray:none;stroke-opacity:1"
   d="m 280.219,327.824 c -3.406,0 -6.563,-2.188 -7.633,-5.605 -1.32,-4.215 1.023,-8.707 5.234,-10.031 8.094,-2.543 16.422,-4.715 24.758,-6.461 4.313,-0.906 8.563,1.855 9.469,6.188 0.906,4.324 -1.859,8.563 -6.188,9.469 -7.828,1.641 -15.648,3.684 -23.242,6.07 -0.797,0.249 -1.609,0.37 -2.398,0.37 z"
   id="path30" />

		</g>

	</g>

	<g
   id="g40"
   style="stroke:#000000;stroke-width:5.66929;stroke-miterlimit:4;stroke-dasharray:none;stroke-opacity:1">
		<g
   id="g38"
   style="stroke:#000000;stroke-width:5.66929;stroke-miterlimit:4;stroke-dasharray:none;stroke-opacity:1">
			<path
   style="fill:#868491;stroke:#000000;stroke-width:5.66929;stroke-miterlimit:4;stroke-dasharray:none;stroke-opacity:1"
   d="m 432.219,327.824 c -0.789,0 -1.602,-0.121 -2.398,-0.371 -30.187,-9.48 -61.477,-13.031 -92.969,-10.523 -4.469,0.32 -8.258,-2.941 -8.609,-7.344 -0.344,-4.406 2.938,-8.258 7.344,-8.609 33.609,-2.641 66.891,1.117 99.031,11.211 4.211,1.324 6.555,5.816 5.234,10.031 -1.071,3.418 -4.227,5.605 -7.633,5.605 z"
   id="path36" />

		</g>

	</g>

	<g
   id="g46"
   style="stroke:#000000;stroke-width:5.66929;stroke-miterlimit:4;stroke-dasharray:none;stroke-opacity:1">
		<g
   id="g44"
   style="stroke:#000000;stroke-width:5.66929;stroke-miterlimit:4;stroke-dasharray:none;stroke-opacity:1">
			<path
   style="fill:#868491;stroke:#000000;stroke-width:5.66929;stroke-miterlimit:4;stroke-dasharray:none;stroke-opacity:1"
   d="m 432.219,295.73 c -0.789,0 -1.602,-0.121 -2.398,-0.371 -48.156,-15.125 -99.047,-15.125 -147.203,0 -4.234,1.324 -8.719,-1.023 -10.031,-5.234 -1.32,-4.215 1.023,-8.707 5.234,-10.031 51.297,-16.109 105.5,-16.109 156.797,0 4.211,1.324 6.555,5.816 5.234,10.031 -1.071,3.418 -4.227,5.605 -7.633,5.605 z"
   id="path42" />

		</g>

	</g>

	<g
   id="g52"
   style="stroke:#000000;stroke-width:5.66929;stroke-miterlimit:4;stroke-dasharray:none;stroke-opacity:1">
		<g
   id="g50"
   style="stroke:#000000;stroke-width:5.66929;stroke-miterlimit:4;stroke-dasharray:none;stroke-opacity:1">
			<path
   style="fill:#868491;stroke:#000000;stroke-width:5.66929;stroke-miterlimit:4;stroke-dasharray:none;stroke-opacity:1"
   d="m 280.219,263.824 c -3.406,0 -6.563,-2.188 -7.633,-5.605 -1.32,-4.215 1.023,-8.707 5.234,-10.031 29.445,-9.242 60,-13.176 90.781,-11.73 4.406,0.211 7.82,3.957 7.609,8.371 -0.203,4.422 -3.891,7.797 -8.375,7.613 -28.883,-1.363 -57.578,2.332 -85.219,11.012 -0.796,0.249 -1.608,0.37 -2.397,0.37 z"
   id="path48" />

		</g>

	</g>

	<g
   id="g58"
   style="stroke:#000000;stroke-width:5.66929;stroke-miterlimit:4;stroke-dasharray:none;stroke-opacity:1">
		<g
   id="g56"
   style="stroke:#000000;stroke-width:5.66929;stroke-miterlimit:4;stroke-dasharray:none;stroke-opacity:1">
			<path
   style="fill:#868491;stroke:#000000;stroke-width:5.66929;stroke-miterlimit:4;stroke-dasharray:none;stroke-opacity:1"
   d="m 432.219,263.824 c -0.789,0 -1.602,-0.121 -2.398,-0.371 -10.109,-3.176 -20.539,-5.723 -31,-7.566 -4.352,-0.77 -7.258,-4.918 -6.484,-9.27 0.766,-4.348 4.922,-7.258 9.266,-6.488 11.141,1.965 22.242,4.676 33.016,8.059 4.211,1.324 6.555,5.816 5.234,10.031 -1.072,3.418 -4.228,5.605 -7.634,5.605 z"
   id="path54" />

		</g>

	</g>

	<g
   id="g64"
   style="stroke:#000000;stroke-width:5.66929;stroke-miterlimit:4;stroke-dasharray:none;stroke-opacity:1">
		<g
   id="g62"
   style="stroke:#000000;stroke-width:5.66929;stroke-miterlimit:4;stroke-dasharray:none;stroke-opacity:1">
			<path
   style="fill:#868491;stroke:#000000;stroke-width:5.66929;stroke-miterlimit:4;stroke-dasharray:none;stroke-opacity:1"
   d="m 432.219,231.73 c -0.789,0 -1.602,-0.121 -2.398,-0.371 -48.156,-15.125 -99.047,-15.125 -147.203,0 -4.234,1.316 -8.719,-1.027 -10.031,-5.234 -1.32,-4.215 1.023,-8.707 5.234,-10.031 51.297,-16.109 105.5,-16.109 156.797,0 4.211,1.324 6.555,5.816 5.234,10.031 -1.071,3.418 -4.227,5.605 -7.633,5.605 z"
   id="path60" />

		</g>

	</g>

	<g
   id="g70"
   style="stroke:#000000;stroke-width:5.66929;stroke-miterlimit:4;stroke-dasharray:none;stroke-opacity:1">
		<g
   id="g68"
   style="stroke:#000000;stroke-width:5.66929;stroke-miterlimit:4;stroke-dasharray:none;stroke-opacity:1">
			<path
   style="fill:#868491;stroke:#000000;stroke-width:5.66929;stroke-miterlimit:4;stroke-dasharray:none;stroke-opacity:1"
   d="m 280.219,199.731 c -3.406,0 -6.563,-2.188 -7.633,-5.605 -1.32,-4.215 1.023,-8.707 5.234,-10.031 16.094,-5.055 32.75,-8.562 49.523,-10.422 4.453,-0.535 8.352,2.684 8.836,7.066 0.484,4.391 -2.68,8.348 -7.07,8.832 -15.742,1.75 -31.391,5.043 -46.492,9.789 -0.797,0.249 -1.609,0.371 -2.398,0.371 z"
   id="path66" />

		</g>

	</g>

	<g
   id="g76"
   style="stroke:#000000;stroke-width:5.66929;stroke-miterlimit:4;stroke-dasharray:none;stroke-opacity:1">
		<g
   id="g74"
   style="stroke:#000000;stroke-width:5.66929;stroke-miterlimit:4;stroke-dasharray:none;stroke-opacity:1">
			<path
   style="fill:#868491;stroke:#000000;stroke-width:5.66929;stroke-miterlimit:4;stroke-dasharray:none;stroke-opacity:1"
   d="m 432.219,199.731 c -0.789,0 -1.602,-0.121 -2.398,-0.371 -22.586,-7.098 -46.039,-10.887 -69.719,-11.258 -4.422,-0.07 -7.945,-3.707 -7.875,-8.125 0.07,-4.414 3.93,-8.133 8.125,-7.875 25.219,0.398 50.211,4.434 74.266,11.992 4.211,1.324 6.555,5.816 5.234,10.031 -1.079,3.418 -4.227,5.606 -7.633,5.606 z"
   id="path72" />

		</g>

	</g>

	<g
   id="g82"
   style="stroke:#000000;stroke-width:5.66929;stroke-miterlimit:4;stroke-dasharray:none;stroke-opacity:1">
		<g
   id="g80"
   style="stroke:#000000;stroke-width:5.66929;stroke-miterlimit:4;stroke-dasharray:none;stroke-opacity:1">
			<path
   style="fill:#868491;stroke:#000000;stroke-width:5.66929;stroke-miterlimit:4;stroke-dasharray:none;stroke-opacity:1"
   d="m 280.219,167.824 c -3.406,0 -6.563,-2.188 -7.633,-5.605 -1.32,-4.215 1.023,-8.707 5.234,-10.031 34.859,-10.949 70.937,-14.465 107.281,-10.422 4.391,0.484 7.555,4.441 7.07,8.832 -0.484,4.387 -4.359,7.637 -8.836,7.066 -34.094,-3.781 -67.992,-0.496 -100.719,9.789 -0.796,0.25 -1.608,0.371 -2.397,0.371 z"
   id="path78" />

		</g>

	</g>

	<g
   id="g88"
   style="stroke:#000000;stroke-width:5.66929;stroke-miterlimit:4;stroke-dasharray:none;stroke-opacity:1">
		<g
   id="g86"
   style="stroke:#000000;stroke-width:5.66929;stroke-miterlimit:4;stroke-dasharray:none;stroke-opacity:1">
			<path
   style="fill:#868491;stroke:#000000;stroke-width:5.66929;stroke-miterlimit:4;stroke-dasharray:none;stroke-opacity:1"
   d="m 432.219,167.824 c -0.789,0 -1.602,-0.121 -2.398,-0.371 -5.078,-1.598 -10.289,-3.047 -15.5,-4.316 -4.289,-1.047 -6.922,-5.375 -5.875,-9.668 1.047,-4.293 5.344,-6.918 9.672,-5.879 5.539,1.352 11.086,2.898 16.5,4.598 4.211,1.324 6.555,5.816 5.234,10.031 -1.071,3.418 -4.227,5.605 -7.633,5.605 z"
   id="path84" />

		</g>

	</g>

	<g
   id="g94"
   style="stroke:#000000;stroke-width:5.66929;stroke-miterlimit:4;stroke-dasharray:none;stroke-opacity:1">
		<g
   id="g92"
   style="stroke:#000000;stroke-width:5.66929;stroke-miterlimit:4;stroke-dasharray:none;stroke-opacity:1">
			<path
   style="fill:#868491;stroke:#000000;stroke-width:5.66929;stroke-miterlimit:4;stroke-dasharray:none;stroke-opacity:1"
   d="m 280.219,135.731 c -3.406,0 -6.563,-2.191 -7.633,-5.609 -1.32,-4.219 1.023,-8.707 5.242,-10.027 5.5,-1.727 11.047,-3.27 16.492,-4.594 4.266,-1.051 8.617,1.59 9.664,5.883 1.047,4.293 -1.594,8.621 -5.883,9.664 -5.109,1.242 -10.32,2.691 -15.492,4.312 -0.797,0.249 -1.601,0.371 -2.39,0.371 z"
   id="path90" />

		</g>

	</g>

	<g
   id="g100"
   style="stroke:#000000;stroke-width:5.66929;stroke-miterlimit:4;stroke-dasharray:none;stroke-opacity:1">
		<g
   id="g98"
   style="stroke:#000000;stroke-width:5.66929;stroke-miterlimit:4;stroke-dasharray:none;stroke-opacity:1">
			<path
   style="fill:#868491;stroke:#000000;stroke-width:5.66929;stroke-miterlimit:4;stroke-dasharray:none;stroke-opacity:1"
   d="m 432.219,135.731 c -0.789,0 -1.602,-0.121 -2.398,-0.371 -32.734,-10.285 -66.617,-13.566 -100.719,-9.789 -4.422,0.539 -8.352,-2.684 -8.836,-7.066 -0.484,-4.391 2.68,-8.348 7.07,-8.832 36.328,-4.043 72.414,-0.527 107.281,10.422 4.211,1.324 6.555,5.816 5.234,10.031 -1.07,3.417 -4.226,5.605 -7.632,5.605 z"
   id="path96" />

		</g>

	</g>

	<g
   id="g106"
   style="stroke:#000000;stroke-width:5.66929;stroke-miterlimit:4;stroke-dasharray:none;stroke-opacity:1">
		<g
   id="g104"
   style="stroke:#000000;stroke-width:5.66929;stroke-miterlimit:4;stroke-dasharray:none;stroke-opacity:1">
			<path
   style="fill:#b4b6bc;stroke:#000000;stroke-width:5.66929;stroke-miterlimit:4;stroke-dasharray:none;stroke-opacity:1"
   d="m 64.219,327.824 c -3.406,0 -6.562,-2.188 -7.633,-5.605 -1.32,-4.215 1.023,-8.707 5.234,-10.031 8.094,-2.543 16.422,-4.715 24.758,-6.461 4.32,-0.906 8.563,1.855 9.469,6.188 0.906,4.324 -1.859,8.563 -6.188,9.469 -7.828,1.641 -15.648,3.684 -23.242,6.07 -0.797,0.249 -1.609,0.37 -2.398,0.37 z"
   id="path102" />

		</g>

	</g>

	<g
   id="g112"
   style="stroke:#000000;stroke-width:5.66929;stroke-miterlimit:4;stroke-dasharray:none;stroke-opacity:1">
		<g
   id="g110"
   style="stroke:#000000;stroke-width:5.66929;stroke-miterlimit:4;stroke-dasharray:none;stroke-opacity:1">
			<path
   style="fill:#b4b6bc;stroke:#000000;stroke-width:5.66929;stroke-miterlimit:4;stroke-dasharray:none;stroke-opacity:1"
   d="m 216.219,327.824 c -0.789,0 -1.602,-0.121 -2.398,-0.371 -30.18,-9.48 -61.477,-13.031 -92.969,-10.523 -4.531,0.32 -8.258,-2.941 -8.609,-7.344 -0.344,-4.406 2.938,-8.258 7.344,-8.609 33.609,-2.641 66.883,1.117 99.031,11.211 4.211,1.324 6.555,5.816 5.234,10.031 -1.071,3.418 -4.227,5.605 -7.633,5.605 z"
   id="path108" />

		</g>

	</g>

	<g
   id="g118"
   style="stroke:#000000;stroke-width:5.66929;stroke-miterlimit:4;stroke-dasharray:none;stroke-opacity:1">
		<g
   id="g116"
   style="stroke:#000000;stroke-width:5.66929;stroke-miterlimit:4;stroke-dasharray:none;stroke-opacity:1">
			<path
   style="fill:#b4b6bc;stroke:#000000;stroke-width:5.66929;stroke-miterlimit:4;stroke-dasharray:none;stroke-opacity:1"
   d="m 216.219,295.73 c -0.789,0 -1.602,-0.121 -2.398,-0.371 -48.156,-15.125 -99.047,-15.125 -147.203,0 -4.25,1.324 -8.719,-1.023 -10.031,-5.234 -1.32,-4.215 1.023,-8.707 5.234,-10.031 51.297,-16.109 105.5,-16.109 156.797,0 4.211,1.324 6.555,5.816 5.234,10.031 -1.071,3.418 -4.227,5.605 -7.633,5.605 z"
   id="path114" />

		</g>

	</g>

	<g
   id="g124"
   style="stroke:#000000;stroke-width:5.66929;stroke-miterlimit:4;stroke-dasharray:none;stroke-opacity:1">
		<g
   id="g122"
   style="stroke:#000000;stroke-width:5.66929;stroke-miterlimit:4;stroke-dasharray:none;stroke-opacity:1">
			<path
   style="fill:#b4b6bc;stroke:#000000;stroke-width:5.66929;stroke-miterlimit:4;stroke-dasharray:none;stroke-opacity:1"
   d="m 64.219,263.824 c -3.406,0 -6.562,-2.188 -7.633,-5.605 -1.32,-4.215 1.023,-8.707 5.234,-10.031 29.445,-9.242 60.023,-13.176 90.781,-11.73 4.406,0.211 7.82,3.957 7.609,8.371 -0.211,4.422 -3.938,7.797 -8.375,7.613 -28.891,-1.363 -57.578,2.332 -85.219,11.012 -0.796,0.249 -1.608,0.37 -2.397,0.37 z"
   id="path120" />

		</g>

	</g>

	<g
   id="g130"
   style="stroke:#000000;stroke-width:5.66929;stroke-miterlimit:4;stroke-dasharray:none;stroke-opacity:1">
		<g
   id="g128"
   style="stroke:#000000;stroke-width:5.66929;stroke-miterlimit:4;stroke-dasharray:none;stroke-opacity:1">
			<path
   style="fill:#b4b6bc;stroke:#000000;stroke-width:5.66929;stroke-miterlimit:4;stroke-dasharray:none;stroke-opacity:1"
   d="m 216.219,263.824 c -0.789,0 -1.602,-0.121 -2.398,-0.371 -10.109,-3.176 -20.539,-5.723 -31,-7.566 -4.352,-0.77 -7.258,-4.918 -6.484,-9.27 0.758,-4.348 4.93,-7.258 9.266,-6.488 11.141,1.965 22.242,4.676 33.016,8.059 4.211,1.324 6.555,5.816 5.234,10.031 -1.072,3.418 -4.228,5.605 -7.634,5.605 z"
   id="path126" />

		</g>

	</g>

	<g
   id="g136"
   style="stroke:#000000;stroke-width:5.66929;stroke-miterlimit:4;stroke-dasharray:none;stroke-opacity:1">
		<g
   id="g134"
   style="stroke:#000000;stroke-width:5.66929;stroke-miterlimit:4;stroke-dasharray:none;stroke-opacity:1">
			<path
   style="fill:#b4b6bc;stroke:#000000;stroke-width:5.66929;stroke-miterlimit:4;stroke-dasharray:none;stroke-opacity:1"
   d="m 64.219,231.73 c -3.406,0 -6.562,-2.188 -7.633,-5.605 -1.32,-4.215 1.023,-8.707 5.234,-10.031 45.477,-14.277 94,-15.867 140.289,-4.594 4.297,1.047 6.93,5.375 5.883,9.668 -1.047,4.289 -5.398,6.902 -9.664,5.879 -43.469,-10.598 -89.016,-9.094 -131.711,4.313 -0.797,0.249 -1.609,0.37 -2.398,0.37 z"
   id="path132" />

		</g>

	</g>

	<g
   id="g142"
   style="stroke:#000000;stroke-width:5.66929;stroke-miterlimit:4;stroke-dasharray:none;stroke-opacity:1">
		<g
   id="g140"
   style="stroke:#000000;stroke-width:5.66929;stroke-miterlimit:4;stroke-dasharray:none;stroke-opacity:1">
			<path
   style="fill:#b4b6bc;stroke:#000000;stroke-width:5.66929;stroke-miterlimit:4;stroke-dasharray:none;stroke-opacity:1"
   d="m 64.219,199.731 c -3.406,0 -6.562,-2.188 -7.633,-5.605 -1.32,-4.215 1.023,-8.707 5.234,-10.031 16.094,-5.055 32.75,-8.562 49.523,-10.422 4.414,-0.535 8.352,2.684 8.836,7.066 0.484,4.391 -2.68,8.348 -7.07,8.832 -15.742,1.75 -31.391,5.043 -46.492,9.789 -0.797,0.249 -1.609,0.371 -2.398,0.371 z"
   id="path138" />

		</g>

	</g>

	<g
   id="g148"
   style="stroke:#000000;stroke-width:5.66929;stroke-miterlimit:4;stroke-dasharray:none;stroke-opacity:1">
		<g
   id="g146"
   style="stroke:#000000;stroke-width:5.66929;stroke-miterlimit:4;stroke-dasharray:none;stroke-opacity:1">
			<path
   style="fill:#b4b6bc;stroke:#000000;stroke-width:5.66929;stroke-miterlimit:4;stroke-dasharray:none;stroke-opacity:1"
   d="m 200.227,195.273 c -0.625,0 -1.266,-0.074 -1.898,-0.227 -17.734,-4.32 -35.984,-6.66 -54.227,-6.945 -4.422,-0.07 -7.945,-3.707 -7.875,-8.125 0.07,-4.414 3.523,-8.133 8.125,-7.875 19.437,0.309 38.867,2.797 57.758,7.398 4.297,1.047 6.93,5.375 5.883,9.668 -0.892,3.657 -4.165,6.106 -7.766,6.106 z"
   id="path144" />

		</g>

	</g>

	<g
   id="g154"
   style="stroke:#000000;stroke-width:5.66929;stroke-miterlimit:4;stroke-dasharray:none;stroke-opacity:1">
		<g
   id="g152"
   style="stroke:#000000;stroke-width:5.66929;stroke-miterlimit:4;stroke-dasharray:none;stroke-opacity:1">
			<path
   style="fill:#b4b6bc;stroke:#000000;stroke-width:5.66929;stroke-miterlimit:4;stroke-dasharray:none;stroke-opacity:1"
   d="m 64.219,167.824 c -3.406,0 -6.562,-2.188 -7.633,-5.605 -1.32,-4.215 1.023,-8.707 5.234,-10.031 34.867,-10.949 70.945,-14.465 107.281,-10.422 4.391,0.484 7.555,4.441 7.07,8.832 -0.484,4.387 -4.391,7.637 -8.836,7.066 -34.094,-3.781 -67.992,-0.496 -100.719,9.789 -0.796,0.25 -1.608,0.371 -2.397,0.371 z"
   id="path150" />

		</g>

	</g>

	<g
   id="g160"
   style="stroke:#000000;stroke-width:5.66929;stroke-miterlimit:4;stroke-dasharray:none;stroke-opacity:1">
		<g
   id="g158"
   style="stroke:#000000;stroke-width:5.66929;stroke-miterlimit:4;stroke-dasharray:none;stroke-opacity:1">
			<path
   style="fill:#b4b6bc;stroke:#000000;stroke-width:5.66929;stroke-miterlimit:4;stroke-dasharray:none;stroke-opacity:1"
   d="m 64.219,135.731 c -3.406,0 -6.562,-2.191 -7.633,-5.609 -1.32,-4.219 1.023,-8.707 5.242,-10.027 5.5,-1.727 11.047,-3.27 16.492,-4.594 4.258,-1.051 8.617,1.59 9.664,5.883 1.047,4.293 -1.594,8.621 -5.883,9.664 -5.109,1.242 -10.32,2.691 -15.492,4.312 -0.797,0.249 -1.601,0.371 -2.39,0.371 z"
   id="path156" />

		</g>

	</g>

	<g
   id="g166"
   style="stroke:#000000;stroke-width:5.66929;stroke-miterlimit:4;stroke-dasharray:none;stroke-opacity:1">
		<g
   id="g164"
   style="stroke:#000000;stroke-width:5.66929;stroke-miterlimit:4;stroke-dasharray:none;stroke-opacity:1">
			<path
   style="fill:#b4b6bc;stroke:#000000;stroke-width:5.66929;stroke-miterlimit:4;stroke-dasharray:none;stroke-opacity:1"
   d="m 200.227,131.27 c -0.625,0 -1.266,-0.074 -1.898,-0.227 -27.961,-6.809 -56.633,-8.641 -85.227,-5.473 -4.391,0.539 -8.352,-2.676 -8.836,-7.066 -0.484,-4.391 2.68,-8.348 7.07,-8.832 30.445,-3.391 61,-1.422 90.773,5.824 4.297,1.047 6.93,5.375 5.883,9.668 -0.891,3.656 -4.164,6.106 -7.765,6.106 z"
   id="path162" />

		</g>

	</g>

	<g
   id="g170"
   style="stroke:#000000;stroke-width:5.66929;stroke-miterlimit:4;stroke-dasharray:none;stroke-opacity:1">
		<path
   style="fill:#5d647f;stroke:#000000;stroke-width:5.66929;stroke-miterlimit:4;stroke-dasharray:none;stroke-opacity:1"
   d="m 200.219,216.064 c 0.001,3.194 3.561,5.1 6.219,3.328 L 224.219,207.538 242,219.392 c 2.658,1.772 6.219,-0.133 6.219,-3.328 V 92.734 c 0,-3.16 -1.843,-6.077 -4.731,-7.361 -12.457,-5.54 -25.259,-9.983 -38.262,-13.418 -2.537,-0.67 -5.03,1.292 -5.029,3.916 z"
   id="path168" />

	</g>

</g>
      <g
         id="g174"
         style="stroke:#000000;stroke-width:5.66929;stroke-miterlimit:4;stroke-dasharray:none;stroke-opacity:1">
</g>
      <g
         id="g176"
         style="stroke:#000000;stroke-width:5.66929;stroke-miterlimit:4;stroke-dasharray:none;stroke-opacity:1">
</g>
      <g
         id="g178"
         style="stroke:#000000;stroke-width:5.66929;stroke-miterlimit:4;stroke-dasharray:none;stroke-opacity:1">
</g>
      <g
         id="g180"
         style="stroke:#000000;stroke-width:5.66929;stroke-miterlimit:4;stroke-dasharray:none;stroke-opacity:1">
</g>
      <g
         id="g182"
         style="stroke:#000000;stroke-width:5.66929;stroke-miterlimit:4;stroke-dasharray:none;stroke-opacity:1">
</g>
      <g
         id="g184"
         style="stroke:#000000;stroke-width:5.66929;stroke-miterlimit:4;stroke-dasharray:none;stroke-opacity:1">
</g>
      <g
         id="g186"
         style="stroke:#000000;stroke-width:5.66929;stroke-miterlimit:4;stroke-dasharray:none;stroke-opacity:1">
</g>
      <g
         id="g188"
         style="stroke:#000000;stroke-width:5.66929;stroke-miterlimit:4;stroke-dasharray:none;stroke-opacity:1">
</g>
      <g
         id="g190"
         style="stroke:#000000;stroke-width:5.66929;stroke-miterlimit:4;stroke-dasharray:none;stroke-opacity:1">
</g>
      <g
         id="g192"
         style="stroke:#000000;stroke-width:5.66929;stroke-miterlimit:4;stroke-dasharray:none;stroke-opacity:1">
</g>
      <g
         id="g194"
         style="stroke:#000000;stroke-width:5.66929;stroke-miterlimit:4;stroke-dasharray:none;stroke-opacity:1">
</g>
      <g
         id="g196"
         style="stroke:#000000;stroke-width:5.66929;stroke-miterlimit:4;stroke-dasharray:none;stroke-opacity:1">
</g>
      <g
         id="g198"
         style="stroke:#000000;stroke-width:5.66929;stroke-miterlimit:4;stroke-dasharray:none;stroke-opacity:1">
</g>
      <g
         id="g200"
         style="stroke:#000000;stroke-width:5.66929;stroke-miterlimit:4;stroke-dasharray:none;stroke-opacity:1">
</g>
      <g
         id="g202"
         style="stroke:#000000;stroke-width:5.66929;stroke-miterlimit:4;stroke-dasharray:none;stroke-opacity:1">
</g>
    </g>
  </g>
</svg>
